{
    "min-days-after-push": 0,
    "harbor": {
        "page_size": 10
    },
    "regexp":[
        ":v(0|[1-9]\\d*)\\.(0|[1-9]\\d*)\\.(0|[1-9]\\d*)(?:-((?:0|[1-9]\\d*|\\d*[a-zA-Z-][0-9a-zA-Z-]*)(?:\\.(?:0|[1-9]\\d*|\\d*[a-zA-Z-][0-9a-zA-Z-]*))*))?(?:\\+([0-9a-zA-Z-]+(?:\\.[0-9a-zA-Z-]+)*))?$",
        ":latest$"
    ],
    "contexts": [
        "local",
        "08-xrow-net"
    ],
    "registry": { 
        "url": "${REGISTRY_URL:-harbor.dev.xrow.net}",
        "username": "${REGISTRY_USERNAME:-robot}",
        "password": "${REGISTRY_PASSWORD:-}",
        "project": "${REGISTRY_PROJECT:-}"
    }
}